…
``` r
df
```

    ## # A tibble: 20,780 × 41
    ##    date       state death deathConfirmed deathIncrease deathProbable
    ##    <date>     <chr> <dbl>          <dbl>         <dbl>         <dbl>
    ##  1 2021-03-07 AK      305             NA             0            NA
    ##  2 2021-03-07 AL    10148           7963            -1          2185
    ##  3 2021-03-07 AR     5319           4308            22          1011
    ##  4 2021-03-07 AS        0             NA             0            NA
    ##  5 2021-03-07 AZ    16328          14403             5          1925
    ##  6 2021-03-07 CA    54124             NA           258            NA
    ##  7 2021-03-07 CO     5989           5251             3           735
    ##  8 2021-03-07 CT     7704           6327             0          1377
    ##  9 2021-03-07 DC     1030             NA             0            NA
    ## 10 2021-03-07 DE     1473           1337             9           136
    ## # ℹ 20,770 more rows
    ## # ℹ 35 more variables: hospitalized <dbl>, hospitalizedCumulative <dbl>,
    ## #   hospitalizedCurrently <dbl>, hospitalizedIncrease <dbl>,
    ## #   inIcuCumulative <dbl>, inIcuCurrently <dbl>, negative <dbl>,
    ## #   negativeIncrease <dbl>, negativeTestsAntibody <dbl>,
    ## #   negativeTestsPeopleAntibody <lgl>, negativeTestsViral <dbl>,
    ## #   onVentilatorCumulative <dbl>, onVentilatorCurrently <dbl>, …
…
``` r
subset_data <- subset(df, select = c("date","hospitalized", "recovered")) #selected only the columns of interest


#clean the data by puting 0 where there NA values. 
#The missing values could not ben totally removed since, NA may mean that there were no recoveries or hospitalizations on specific days.

subset_data["hospitalized"][is.na(subset_data["hospitalized"])] <- 0
subset_data["recovered"][is.na(subset_data["recovered"])] <- 0

subset_data
```

    ## # A tibble: 20,780 × 3
    ##    date       hospitalized recovered
    ##    <date>            <dbl>     <dbl>
    ##  1 2021-03-07         1293         0
    ##  2 2021-03-07        45976    295690
    ##  3 2021-03-07        14926    315517
    ##  4 2021-03-07            0         0
    ##  5 2021-03-07        57907         0
    ##  6 2021-03-07            0         0
    ##  7 2021-03-07        23904         0
    ##  8 2021-03-07            0         0
    ##  9 2021-03-07            0     29570
    ## 10 2021-03-07            0         0
    ## # ℹ 20,770 more rows
…
